[gd_scene load_steps=4 format=2]

[ext_resource path="res://src/scripts/DayTrigger.gd" type="Script" id=1]
[ext_resource path="res://src/components/CharacterInteractable.tscn" type="PackedScene" id=2]

[sub_resource type="RectangleShape2D" id=1]
extents = Vector2( 16, 16 )

[node name="DayTrigger" type="StaticBody2D"]
script = ExtResource( 1 )

[node name="InteractableArea" parent="." instance=ExtResource( 2 )]

[node name="CollisionShape2D" type="CollisionShape2D" parent="."]
position = Vector2( 0, 16 )
shape = SubResource( 1 )

[connection signal="player_focus_gained" from="InteractableArea" to="." method="_on_InteractableArea_player_focus_gained"]
[connection signal="player_focus_lost" from="InteractableArea" to="." method="_on_InteractableArea_player_focus_lost"]
[connection signal="player_interacted_with" from="InteractableArea" to="." method="_on_InteractableArea_player_interacted_with"]
