[gd_scene load_steps=3 format=2]

[ext_resource path="res://src/assets/tile_highlight.png" type="Texture" id=1]
[ext_resource path="res://src/assets/keys/E_Key_Light.png" type="Texture" id=2]

[node name="Sprite" type="Sprite"]
texture = ExtResource( 1 )
centered = false

[node name="Sprite" type="Sprite" parent="."]
position = Vector2( 32, 0 )
scale = Vector2( 0.2, 0.2 )
texture = ExtResource( 2 )
