{
	"events": [
		{
			"action": "join",
			"character": "character-1625395541.json",
			"event_id": "dialogic_002",
			"mirror": false,
			"portrait": "",
			"position": {
				"0": true,
				"1": false,
				"2": false,
				"3": false,
				"4": false
			}
		},
		{
			"action": "join",
			"character": "character-1626471040.json",
			"event_id": "dialogic_002",
			"mirror": false,
			"portrait": "",
			"position": {
				"0": false,
				"1": false,
				"2": false,
				"3": false,
				"4": true
			}
		},
		{
			"character": "character-1626471040.json",
			"event_id": "dialogic_001",
			"portrait": "",
			"text": "Hello again Soup."
		},
		{
			"character": "character-1625395541.json",
			"event_id": "dialogic_001",
			"portrait": "",
			"text": "Good morning."
		},
		{
			"character": "character-1626471040.json",
			"event_id": "dialogic_001",
			"portrait": "",
			"text": "Not your usual chipper self today?"
		},
		{
			"character": "character-1625395541.json",
			"event_id": "dialogic_001",
			"portrait": "",
			"text": "I have never done this much physical labour before in my life."
		},
		{
			"character": "character-1626471040.json",
			"event_id": "dialogic_001",
			"portrait": "",
			"text": "Hah! I suppose not! City life catching up to you?"
		},
		{
			"character": "character-1625395541.json",
			"event_id": "dialogic_001",
			"portrait": "",
			"text": "How do my parents do this. When do they [i]stop[/i]."
		},
		{
			"character": "character-1626471040.json",
			"event_id": "dialogic_001",
			"portrait": "",
			"text": "Oh yes there's always work to do on a farm. How's the duck spotting been going?"
		},
		{
			"character": "character-1625395541.json",
			"event_id": "dialogic_001",
			"portrait": "",
			"text": "Still no sign of that Garganey, but I've been watching those Gadwall's you mentioned the other day. Beautiful."
		},
		{
			"character": "character-1626471040.json",
			"event_id": "dialogic_001",
			"portrait": "",
			"text": "That they are. Here, have a seat."
		},
		{
			"character": "",
			"event_id": "dialogic_001",
			"portrait": "",
			"text": "[i]Steven and Soup sit and watch the ducks for a while. It is very relaxing.[/i]"
		},
		{
			"action": "leaveall",
			"character": "[All]",
			"event_id": "dialogic_003"
		}
	],
	"metadata": {
		"dialogic-version": "1.2.4",
		"file": "timeline-1636574617.json",
		"name": "steven-day18"
	}
}
